sim/waves/alu.vcd
$date
	Wed Nov 19 11:58:50 2025
$end
$version
	Icarus Verilog
$end
$timescale
	1ps
$end
$scope module alu_tb $end
$var wire 8 ! y [7:0] $end
$var parameter 3 " ADD $end
$var parameter 3 # AND $end
$var parameter 3 $ OR $end
$var parameter 3 % SUB $end
$var parameter 3 & XOR $end
$var reg 8 ' a [7:0] $end
$var reg 8 ( b [7:0] $end
$var reg 3 ) op [2:0] $end
$var integer 32 * fail_count [31:0] $end
$var integer 32 + pass_count [31:0] $end
$var integer 32 , test_count [31:0] $end
$scope module dut $end
$var wire 8 - a [7:0] $end
$var wire 8 . b [7:0] $end
$var wire 3 / op [2:0] $end
$var parameter 32 0 WIDTH $end
$var reg 8 1 y [7:0] $end
$upscope $end
$scope task test_operation $end
$var reg 8 2 expected_result [7:0] $end
$var reg 8 3 test_a [7:0] $end
$var reg 8 4 test_b [7:0] $end
$var reg 3 5 test_op [2:0] $end
$upscope $end
$upscope $end
$enddefinitions $end
$comment Show the parameter values. $end
$dumpall
b1000 0
b100 &
b1 %
b11 $
b10 #
b0 "
$end
#0
$dumpvars
b0 5
b101 4
b1010 3
b1111 2
b1111 1
b0 /
b101 .
b1010 -
b0 ,
b0 +
b0 *
b0 )
b101 (
b1010 '
b1111 !
$end
#10000
b101 !
b101 1
b1 )
b1 /
b101 2
b1 5
b1 +
b1 ,
#20000
b0 !
b0 1
b10 )
b10 /
b0 2
b10 5
b10 +
b10 ,
#30000
b1111 !
b1111 1
b11 )
b11 /
b1111 2
b11 5
b11 +
b11 ,
#40000
b100 )
b100 /
b100 5
b100 +
b100 ,
#50000
b0 !
b0 1
b0 )
b0 /
b0 (
b0 .
b0 '
b0 -
b0 2
b0 5
b0 4
b0 3
b101 +
b101 ,
#60000
b101 !
b101 1
b101 (
b101 .
b101 2
b101 4
b110 +
b110 ,
#70000
b1 )
b1 /
b0 (
b0 .
b101 '
b101 -
b1 5
b0 4
b101 3
b111 +
b111 ,
#80000
b0 !
b0 1
b10 )
b10 /
b0 '
b0 -
b0 2
b10 5
b0 3
b1000 +
b1000 ,
#90000
b11 )
b11 /
b11 5
b1001 +
b1001 ,
#100000
b100 )
b100 /
b100 5
b1010 +
b1010 ,
#110000
b11111110 !
b11111110 1
b0 )
b0 /
b11111111 (
b11111111 .
b11111111 '
b11111111 -
b11111110 2
b0 5
b11111111 4
b11111111 3
b1011 +
b1011 ,
#120000
b11111111 !
b11111111 1
b1 )
b1 /
b0 (
b0 .
b11111111 2
b1 5
b0 4
b1100 +
b1100 ,
#130000
b10 )
b10 /
b11111111 (
b11111111 .
b10 5
b11111111 4
b1101 +
b1101 ,
#140000
b11 )
b11 /
b11 5
b1110 +
b1110 ,
#150000
b0 !
b0 1
b100 )
b100 /
b0 2
b100 5
b1111 +
b1111 ,
#160000
b10 )
b10 /
b1010101 (
b1010101 .
b10101010 '
b10101010 -
b10 5
b1010101 4
b10101010 3
b10000 +
b10000 ,
#170000
b11111111 !
b11111111 1
b11 )
b11 /
b11111111 2
b11 5
b10001 +
b10001 ,
#180000
b100 )
b100 /
b100 5
b10010 +
b10010 ,
#190000
b110011 (
b110011 .
b11001100 '
b11001100 -
b110011 4
b11001100 3
b10011 +
b10011 ,
#200000
b10 !
b10 1
b0 )
b0 /
b1 (
b1 .
b1 '
b1 -
b10 2
b0 5
b1 4
b1 3
b10100 +
b10100 ,
#210000
b10000000 !
b10000000 1
b11 )
b11 /
b10000000 (
b10000000 .
b10000000 '
b10000000 -
b10000000 2
b11 5
b10000000 4
b10000000 3
b10101 +
b10101 ,
#220000
b1 !
b1 1
b100 )
b100 /
b0 (
b0 .
b1 '
b1 -
b1 2
b100 5
b0 4
b1 3
b10110 +
b10110 ,
#230000
b0 !
b0 1
b101 )
b101 /
b101 (
b101 .
b1010 '
b1010 -
b0 2
b101 5
b101 4
b1010 3
b10111 +
b10111 ,
#240000
b110 )
b110 /
b110 5
b11000 +
b11000 ,
#250000
b111 )
b111 /
b111 5
b11001 +
b11001 ,
#260000
b11010 +
b11010 ,
